<?xml version="1.0" encoding="UTF-8"?>
<svg width="30px" height="30px" viewBox="0 0 30 30" version="1.1" xmlns="http://www.w3.org/2000/svg" xmlns:xlink="http://www.w3.org/1999/xlink">
    <title>domain</title>
    <g id="domain" stroke="none" stroke-width="1" fill="none" fill-rule="evenodd">
        <path d="M3,18.2142857 C3,21.4084821 5.51953125,24 8.625,24 L23,24 C25.7617188,24 28,21.6977679 28,18.8571429 C28,16.3700893 26.28125,14.2928571 24,13.81875 C24.1601562,13.3888393 24.25,12.91875 24.25,12.4285714 C24.25,10.2991071 22.5703125,8.57142857 20.5,8.57142857 C19.7304688,8.57142857 19.0117187,8.8125 18.4179688,9.22232143 C17.3359375,7.29375 15.3164062,6 13,6 C9.546875,6 6.75,8.87678571 6.75,12.4285714 C6.75,12.5370536 6.75390625,12.6455357 6.7578125,12.7540179 C4.5703125,13.5455357 3,15.6910714 3,18.2142857 Z" id="Path" fill="#FFFFFF" fill-rule="nonzero"></path>
    </g>
</svg>