<?xml version="1.0" encoding="UTF-8"?>
<svg width="30px" height="30px" viewBox="0 0 30 30" version="1.1" xmlns="http://www.w3.org/2000/svg" xmlns:xlink="http://www.w3.org/1999/xlink">
    <title>tiendas</title>
    <g id="tiendas" stroke="none" stroke-width="1" fill="none" fill-rule="evenodd">
        <path d="M5,6.84375 C5,6.37617187 5.37470529,6 5.84046047,6 L7.43383345,6 C8.20425555,6 8.88712968,6.45 9.20580428,7.125 L23.5986899,7.125 C24.5196945,7.125 25.1920628,8.00390625 24.9504305,8.896875 L23.5146438,14.2511719 C23.2169807,15.3550781 22.2189339,16.125 21.0808104,16.125 L10.9777751,16.125 L11.1668787,17.1269531 C11.2439209,17.5242187 11.5906109,17.8125 11.9933315,17.8125 L22.0893629,17.8125 C22.5551181,17.8125 22.9298234,18.1886719 22.9298234,18.65625 C22.9298234,19.1238281 22.5551181,19.5 22.0893629,19.5 L11.9933315,19.5 C10.7816677,19.5 9.74159783,18.6351563 9.51747504,17.4433594 L7.71048502,7.91601562 C7.68597159,7.78242188 7.57040828,7.6875 7.43383345,7.6875 L5.84046047,7.6875 C5.37470529,7.6875 5,7.31132812 5,6.84375 Z M9.48245585,22.3125 C9.48245585,21.7096143 9.80283756,21.152525 10.3229163,20.8510821 C10.8429951,20.5496393 11.4837585,20.5496393 12.0038373,20.8510821 C12.523916,21.152525 12.8442977,21.7096143 12.8442977,22.3125 C12.8442977,23.2444805 12.0917238,24 11.1633768,24 C10.2350298,24 9.48245585,23.2444805 9.48245585,22.3125 L9.48245585,22.3125 Z M21.2489025,20.625 C22.1772495,20.625 22.9298234,21.3805195 22.9298234,22.3125 C22.9298234,23.2444805 22.1772495,24 21.2489025,24 C20.3205555,24 19.5679815,23.2444805 19.5679815,22.3125 C19.5679815,21.3805195 20.3205555,20.625 21.2489025,20.625 Z" id="Shape" fill="#FFFFFF" fill-rule="nonzero"></path>
    </g>
</svg>