<?xml version="1.0" encoding="UTF-8"?>
<svg width="30px" height="30px" viewBox="0 0 30 30" version="1.1" xmlns="http://www.w3.org/2000/svg" xmlns:xlink="http://www.w3.org/1999/xlink">
    <title>tv</title>
    <g id="tv" stroke="none" stroke-width="1" fill="none" fill-rule="evenodd">
        <path d="M24,8 L16.42,8 L19.71,4.71 L19,4 L15,8 L14.97,8 L10.97,4 L10.28,4.71 L13.56,8 L6,8 C4.9,8 4,8.9 4,10 L4,22 C4,23.1 4.9,24 6,24 L24,24 C25.1,24 26,23.1 26,22 L26,10 C26,8.9 25.1,8 24,8 Z M24,22 L6,22 L6,10 L24,10 L24,22 Z" id="Shape" fill="#FFFFFF"></path>
        <path d="M13.3307292,12.1260075 C13.0609375,11.9635363 12.721875,11.9581801 12.4466146,12.109939 C12.1713542,12.2616978 12,12.5473616 12,12.858021 L12,19.1426239 C12,19.4532833 12.1713542,19.738947 12.4466146,19.8907059 C12.721875,20.0424648 13.0609375,20.0353232 13.3307292,19.8746373 L18.5807292,16.7323358 C18.8414062,16.5770062 19,16.3002694 19,16.0003224 C19,15.7003755 18.8414062,15.4254241 18.5807292,15.268309 L13.3307292,12.1260075 Z" id="Path" fill="#FFFFFF" fill-rule="nonzero"></path>
    </g>
</svg>